INDEX VERSION 1.129+C:\Users\RedWeaver\Desktop\workSpaceProg4\.metadata\.plugins\org.eclipse.jdt.core
1904741536.index
978027163.index
1490264980.index
3064514356.index
3418900049.index
2534894270.index
3799840935.index
3256285438.index
3172068124.index
4128614001.index
2628075335.index
2140391340.index
2167310551.index
92697703.index
3950997971.index
3629089394.index
4166838873.index
3169665766.index
1850684848.index
3847112502.index
2523857881.index
175448442.index
1125762041.index
1446449134.index
1642828606.index
3004231406.index
1935717987.index
3285588462.index
2913282325.index
3593227710.index
2728997289.index
3118943309.index
2725203144.index
442707673.index
619437265.index
3343850515.index
3516791086.index
1891584920.index
441125455.index
625261098.index
2831536327.index
273135714.index
182334134.index
1888182154.index
1452680829.index
3681335767.index
2312443017.index
2748008709.index
1004716384.index
3119455041.index
3472352161.index
1362066026.index
1220472997.index
2990259596.index
3579109765.index
3273637390.index
1792083408.index
4011303838.index
188619105.index
1161692419.index
2663439616.index
1583927216.index
2017505986.index
375126478.index
1847969816.index
1921806534.index
1696337373.index
75101408.index
174821983.index
548471323.index
486699731.index
1179742711.index
4241936646.index
2240110316.index
147977206.index
1563787677.index
4293234829.index
1475900170.index
3247421155.index
3421943091.index
3431500351.index
2955443278.index
3121969358.index
3878457715.index
797011736.index
2927524569.index
2296259372.index
3639041100.index
3794970290.index
