127.0.0.1 - - [31/Oct/2016:09:11:39 -0200] "GET / HTTP/1.1" 404 1000
0:0:0:0:0:0:0:1 - - [31/Oct/2016:09:11:40 -0200] "GET /01-base/ HTTP/1.1" 403 300
0:0:0:0:0:0:0:1 - - [31/Oct/2016:09:11:41 -0200] "GET /favicon.ico HTTP/1.1" 404 1022
0:0:0:0:0:0:0:1 - - [31/Oct/2016:09:11:41 -0200] "GET /favicon.ico HTTP/1.1" 404 1022
0:0:0:0:0:0:0:1 - - [31/Oct/2016:09:11:46 -0200] "GET /01-base/cadastro HTTP/1.1" 200 5709
0:0:0:0:0:0:0:1 - - [31/Oct/2016:09:11:54 -0200] "POST /01-base/cadastro HTTP/1.1" 500 656
0:0:0:0:0:0:0:1 - - [31/Oct/2016:09:11:59 -0200] "GET /01-base/cadastro HTTP/1.1" 200 5709
0:0:0:0:0:0:0:1 - - [31/Oct/2016:09:12:01 -0200] "POST /01-base/cadastro HTTP/1.1" 302 -
0:0:0:0:0:0:0:1 - - [31/Oct/2016:09:12:02 -0200] "GET /01-base/anuncios HTTP/1.1" 200 5583
0:0:0:0:0:0:0:1 - - [31/Oct/2016:09:27:33 -0200] "GET /01-base/ HTTP/1.1" 403 300
127.0.0.1 - - [31/Oct/2016:09:27:47 -0200] "GET / HTTP/1.1" 404 1000
127.0.0.1 - - [31/Oct/2016:09:28:23 -0200] "GET / HTTP/1.1" 404 1000
0:0:0:0:0:0:0:1 - - [31/Oct/2016:09:28:23 -0200] "GET /01-base/ HTTP/1.1" 404 1016
127.0.0.1 - - [31/Oct/2016:09:28:36 -0200] "GET / HTTP/1.1" 404 1000
0:0:0:0:0:0:0:1 - - [31/Oct/2016:09:28:44 -0200] "GET /01-base/ HTTP/1.1" 404 1016
0:0:0:0:0:0:0:1 - - [31/Oct/2016:09:28:48 -0200] "GET /01-base/cadastro HTTP/1.1" 404 1032
127.0.0.1 - - [31/Oct/2016:09:29:46 -0200] "GET / HTTP/1.1" 404 1000
0:0:0:0:0:0:0:1 - - [31/Oct/2016:09:29:48 -0200] "GET /01-base/ HTTP/1.1" 403 300
0:0:0:0:0:0:0:1 - - [31/Oct/2016:09:29:53 -0200] "GET /01-base/cadastro HTTP/1.1" 200 5709
0:0:0:0:0:0:0:1 - - [31/Oct/2016:09:29:57 -0200] "POST /01-base/cadastro HTTP/1.1" 302 -
0:0:0:0:0:0:0:1 - - [31/Oct/2016:09:29:58 -0200] "GET /01-base/anuncios HTTP/1.1" 200 5583
0:0:0:0:0:0:0:1 - - [31/Oct/2016:09:42:57 -0200] "GET /01-base/cadastro HTTP/1.1" 200 5709
0:0:0:0:0:0:0:1 - - [31/Oct/2016:09:43:01 -0200] "POST /01-base/cadastro HTTP/1.1" 403 -
0:0:0:0:0:0:0:1 - - [31/Oct/2016:09:43:04 -0200] "GET /01-base/cadastro HTTP/1.1" 200 5709
127.0.0.1 - - [31/Oct/2016:09:50:34 -0200] "GET / HTTP/1.1" 404 1000
0:0:0:0:0:0:0:1 - - [31/Oct/2016:10:16:11 -0200] "POST /01-base/cadastro HTTP/1.1" 403 -
0:0:0:0:0:0:0:1 - - [31/Oct/2016:10:17:36 -0200] "GET /01-base/ HTTP/1.1" 403 300
0:0:0:0:0:0:0:1 - - [31/Oct/2016:10:17:42 -0200] "GET /01-base/cadastro HTTP/1.1" 200 5709
0:0:0:0:0:0:0:1 - - [31/Oct/2016:10:17:45 -0200] "POST /01-base/cadastro HTTP/1.1" 302 -
0:0:0:0:0:0:0:1 - - [31/Oct/2016:10:17:45 -0200] "GET /01-base/anuncios HTTP/1.1" 200 5583
127.0.0.1 - - [31/Oct/2016:10:51:48 -0200] "GET / HTTP/1.1" 404 1000
0:0:0:0:0:0:0:1 - - [31/Oct/2016:10:52:39 -0200] "GET /01-base/ HTTP/1.1" 403 300
0:0:0:0:0:0:0:1 - - [31/Oct/2016:10:52:45 -0200] "GET /01-base/cadastro HTTP/1.1" 200 5709
0:0:0:0:0:0:0:1 - - [31/Oct/2016:10:52:49 -0200] "POST /01-base/cadastro HTTP/1.1" 302 -
0:0:0:0:0:0:0:1 - - [31/Oct/2016:10:52:50 -0200] "GET /01-base/anuncios HTTP/1.1" 200 5583
0:0:0:0:0:0:0:1 - - [31/Oct/2016:11:14:08 -0200] "GET /01-base/cadastro HTTP/1.1" 200 5709
0:0:0:0:0:0:0:1 - - [31/Oct/2016:11:47:34 -0200] "POST /01-base/cadastro HTTP/1.1" 403 -
0:0:0:0:0:0:0:1 - - [31/Oct/2016:11:49:14 -0200] "GET /01-base/cadastro HTTP/1.1" 200 5713
127.0.0.1 - - [31/Oct/2016:11:50:38 -0200] "GET /01-base/cadastro HTTP/1.1" 200 5713
0:0:0:0:0:0:0:1 - - [31/Oct/2016:13:36:52 -0200] "GET /01-base/cadastro HTTP/1.1" 200 5718
0:0:0:0:0:0:0:1 - - [31/Oct/2016:13:36:59 -0200] "POST /01-base/cadastro HTTP/1.1" 302 -
0:0:0:0:0:0:0:1 - - [31/Oct/2016:13:36:59 -0200] "GET /01-base/anuncios HTTP/1.1" 200 5583
0:0:0:0:0:0:0:1 - - [31/Oct/2016:13:37:04 -0200] "GET /01-base/anuncios HTTP/1.1" 200 5583
0:0:0:0:0:0:0:1 - - [31/Oct/2016:13:37:06 -0200] "GET /01-base/faq HTTP/1.1" 200 6724
0:0:0:0:0:0:0:1 - - [31/Oct/2016:13:37:09 -0200] "GET /01-base/home HTTP/1.1" 200 6255
0:0:0:0:0:0:0:1 - - [31/Oct/2016:13:37:20 -0200] "GET /01-base/faq HTTP/1.1" 200 6724
0:0:0:0:0:0:0:1 - - [31/Oct/2016:13:37:22 -0200] "GET /01-base/anuncios HTTP/1.1" 200 5583
0:0:0:0:0:0:0:1 - - [31/Oct/2016:13:42:11 -0200] "GET /01-base/anuncios HTTP/1.1" 200 5611
0:0:0:0:0:0:0:1 - - [31/Oct/2016:13:44:32 -0200] "GET /01-base/anuncios HTTP/1.1" 500 572
0:0:0:0:0:0:0:1 - - [31/Oct/2016:13:44:41 -0200] "GET /01-base/anuncios HTTP/1.1" 500 359
0:0:0:0:0:0:0:1 - - [31/Oct/2016:13:44:47 -0200] "GET /01-base/anuncios HTTP/1.1" 500 359
0:0:0:0:0:0:0:1 - - [31/Oct/2016:13:44:48 -0200] "GET /01-base/anuncios HTTP/1.1" 500 359
127.0.0.1 - - [31/Oct/2016:13:46:01 -0200] "GET / HTTP/1.1" 404 1000
0:0:0:0:0:0:0:1 - - [31/Oct/2016:13:46:08 -0200] "GET /01-base/anuncios HTTP/1.1" 500 359
0:0:0:0:0:0:0:1 - - [31/Oct/2016:13:46:16 -0200] "GET /01-base/cadastro HTTP/1.1" 200 5713
0:0:0:0:0:0:0:1 - - [31/Oct/2016:13:46:20 -0200] "POST /01-base/cadastro HTTP/1.1" 500 656
0:0:0:0:0:0:0:1 - - [31/Oct/2016:13:46:22 -0200] "GET /01-base/cadastro HTTP/1.1" 200 5713
0:0:0:0:0:0:0:1 - - [31/Oct/2016:13:46:26 -0200] "POST /01-base/cadastro HTTP/1.1" 500 483
0:0:0:0:0:0:0:1 - - [31/Oct/2016:13:46:47 -0200] "GET /01-base/cadastro HTTP/1.1" 200 5713
0:0:0:0:0:0:0:1 - - [31/Oct/2016:13:46:50 -0200] "POST /01-base/cadastro HTTP/1.1" 302 -
0:0:0:0:0:0:0:1 - - [31/Oct/2016:13:46:50 -0200] "GET /01-base/anuncios HTTP/1.1" 500 359
127.0.0.1 - - [31/Oct/2016:13:55:59 -0200] "GET / HTTP/1.1" 404 1000
127.0.0.1 - - [31/Oct/2016:13:57:40 -0200] "GET / HTTP/1.1" 404 1000
0:0:0:0:0:0:0:1 - - [31/Oct/2016:13:57:42 -0200] "GET /01-base/ HTTP/1.1" 403 300
0:0:0:0:0:0:0:1 - - [31/Oct/2016:13:57:49 -0200] "GET /01-base/cadastro HTTP/1.1" 200 5713
0:0:0:0:0:0:0:1 - - [31/Oct/2016:13:57:55 -0200] "GET /01-base/anuncios HTTP/1.1" 500 359
0:0:0:0:0:0:0:1 - - [31/Oct/2016:13:59:45 -0200] "GET /01-base/ HTTP/1.1" 403 300
127.0.0.1 - - [31/Oct/2016:14:00:26 -0200] "GET / HTTP/1.1" 404 1000
127.0.0.1 - - [31/Oct/2016:14:08:30 -0200] "GET / HTTP/1.1" 404 1000
127.0.0.1 - - [31/Oct/2016:14:10:48 -0200] "GET / HTTP/1.1" 404 1000
0:0:0:0:0:0:0:1 - - [31/Oct/2016:14:10:50 -0200] "GET /01-base/ HTTP/1.1" 403 300
0:0:0:0:0:0:0:1 - - [31/Oct/2016:14:10:56 -0200] "GET /01-base/cadastro HTTP/1.1" 200 5713
0:0:0:0:0:0:0:1 - - [31/Oct/2016:14:11:02 -0200] "POST /01-base/cadastro HTTP/1.1" 302 -
0:0:0:0:0:0:0:1 - - [31/Oct/2016:14:11:03 -0200] "GET /01-base/anuncios HTTP/1.1" 200 5615
0:0:0:0:0:0:0:1 - - [31/Oct/2016:14:13:08 -0200] "GET /01-base/anuncios HTTP/1.1" 200 5617
0:0:0:0:0:0:0:1 - - [31/Oct/2016:14:14:07 -0200] "GET /01-base/anuncios HTTP/1.1" 500 359
0:0:0:0:0:0:0:1 - - [31/Oct/2016:14:14:46 -0200] "GET /01-base/anuncios HTTP/1.1" 500 359
0:0:0:0:0:0:0:1 - - [31/Oct/2016:14:14:49 -0200] "GET /01-base/anuncios HTTP/1.1" 500 359
0:0:0:0:0:0:0:1 - - [31/Oct/2016:14:14:52 -0200] "GET /01-base/anuncios HTTP/1.1" 500 359
0:0:0:0:0:0:0:1 - - [31/Oct/2016:14:16:27 -0200] "GET /01-base/anuncios HTTP/1.1" 500 359
127.0.0.1 - - [31/Oct/2016:14:27:22 -0200] "GET / HTTP/1.1" 404 1000
0:0:0:0:0:0:0:1 - - [31/Oct/2016:14:27:23 -0200] "GET /01-base/ HTTP/1.1" 403 300
0:0:0:0:0:0:0:1 - - [31/Oct/2016:14:27:24 -0200] "GET /favicon.ico HTTP/1.1" 404 1022
0:0:0:0:0:0:0:1 - - [31/Oct/2016:14:27:24 -0200] "GET /favicon.ico HTTP/1.1" 404 1022
127.0.0.1 - - [31/Oct/2016:14:29:54 -0200] "GET / HTTP/1.1" 404 1000
0:0:0:0:0:0:0:1 - - [31/Oct/2016:14:29:56 -0200] "GET /01-base/ HTTP/1.1" 403 300
127.0.0.1 - - [31/Oct/2016:14:35:29 -0200] "GET / HTTP/1.1" 404 1000
127.0.0.1 - - [31/Oct/2016:14:36:52 -0200] "GET / HTTP/1.1" 404 1000
0:0:0:0:0:0:0:1 - - [31/Oct/2016:14:36:54 -0200] "GET /01-base/ HTTP/1.1" 403 300
0:0:0:0:0:0:0:1 - - [31/Oct/2016:14:36:59 -0200] "GET /01-base/anuncios HTTP/1.1" 200 5617
127.0.0.1 - - [31/Oct/2016:14:40:42 -0200] "GET / HTTP/1.1" 404 1000
0:0:0:0:0:0:0:1 - - [31/Oct/2016:14:40:44 -0200] "GET /01-base/ HTTP/1.1" 403 300
0:0:0:0:0:0:0:1 - - [31/Oct/2016:14:40:50 -0200] "GET /01-base/cadastro HTTP/1.1" 200 5713
0:0:0:0:0:0:0:1 - - [31/Oct/2016:14:40:56 -0200] "POST /01-base/cadastro HTTP/1.1" 302 -
0:0:0:0:0:0:0:1 - - [31/Oct/2016:14:40:57 -0200] "GET /01-base/anuncios HTTP/1.1" 200 5617
0:0:0:0:0:0:0:1 - - [31/Oct/2016:14:41:43 -0200] "GET /01-base/anuncios HTTP/1.1" 500 359
0:0:0:0:0:0:0:1 - - [31/Oct/2016:14:46:25 -0200] "GET /01-base/ HTTP/1.1" 403 300
0:0:0:0:0:0:0:1 - - [31/Oct/2016:14:46:34 -0200] "GET /01-base/anuncios HTTP/1.1" 500 359
0:0:0:0:0:0:0:1 - - [31/Oct/2016:14:46:36 -0200] "GET /01-base/anuncios HTTP/1.1" 500 359
0:0:0:0:0:0:0:1 - - [31/Oct/2016:14:46:37 -0200] "GET /01-base/anuncios HTTP/1.1" 500 359
